1#~#Deven Bhooshan#~#419#~#419#~#50#~#50#~#35#~#35#~#15#~#15#~#18#~##~#0#~#0#~#0#~#0#~#Jai Singh#~#F#~#22-12-1943#~#M#~#12-01-2012#~##~##~##~##~#
2#~#Nishant Kumar#~#710#~#0#~#85#~#85#~#0#~#0#~#85#~#85#~#9#~##~#0#~#0#~#0#~#0#~#NS Kumar#~#F#~#22-12-1946#~#M#~##~##~##~##~##~#
3#~#Pradeep jain#~#774#~#0#~#93#~#93#~#0#~#0#~#93#~#93#~#7#~##~#0#~#0#~#0#~#0#~#PI Jain#~#F#~# 12-03-1996#~#M#~##~##~##~##~##~#
#~#ABC#~#710#~#0#~#85#~#85#~#0#~#0#~#85#~#85#~#9#~##~#0#~#0#~#0#~#0#~# #~#F#~#12-12-1993#~#M#~##~##~##~##~##~#
