7#~#HIMMAT SINGH#~#645#~#645#~#77#~#77#~#54#~#54#~#23#~#23#~#2#~##~#0#~#0#~#0#~#0#~##~##~##~##~##~##~#07/05/2013#~#07/05/2013#~#C#~#
1#~#RAMA KISHAN TAK#~#5226#~#5226#~#627#~#627#~#435#~#435#~#192#~#192#~#4#~##~#0#~#0#~#0#~#0#~##~##~##~##~##~##~##~##~##~#
2#~#VIJAY SINGH#~#6000#~#0#~#720#~#720#~#0#~#0#~#720#~#720#~#0#~##~#0#~#0#~#0#~#0#~##~##~##~##~##~##~##~##~##~#
3#~#SURENDRA SINGH#~#6000#~#6000#~#720#~#720#~#500#~#500#~#220#~#220#~#0#~##~#0#~#0#~#0#~#0#~##~##~##~##~##~##~##~##~##~#
4#~#SUNIL GHARU#~#5000#~#5000#~#600#~#600#~#417#~#417#~#183#~#183#~#0#~##~#0#~#0#~#0#~#0#~##~##~##~##~##~##~##~##~##~#
5#~#POONAM BHATI#~#4839#~#4839#~#581#~#581#~#403#~#403#~#178#~#178#~#1#~##~#0#~#0#~#0#~#0#~##~##~##~##~##~##~##~##~##~#
6#~#VAIBHAV#~#2903#~#2903#~#348#~#348#~#242#~#242#~#106#~#106#~#13#~##~#0#~#0#~#0#~#0#~##~##~##~##~##~##~##~##~##~#
8#~#ANILA SINGH ARYA#~#4000#~#4000#~#480#~#480#~#333#~#333#~#147#~#147#~#0#~##~#0#~#0#~#0#~#0#~##~##~##~##~##~##~##~##~##~#
